0000.012 () Opened log file at time: Wed, 23 Mar 2022 15:27:32 +0000 on https://test.blvckpixel.com
0000.012 () UpdraftPlus WordPress backup plugin (https://updraftplus.com): 1.22.11 WP: 5.9.2 PHP: 7.4.3 (fpm-fcgi, Linux ip-172-31-17-9 5.11.0-1028-aws #31~20.04.1-Ubuntu SMP Fri Jan 14 14:37:50 UTC 2022 x86_64) MySQL: 8.0.27-0ubuntu0.20.04.1 (max packet size=67108864) WPLANG: en_US Server: nginx/1.18.0 safe_mode: 0 max_execution_time: 900 memory_limit: 512M (used: 21.1M | 10M) multisite: N openssl: OpenSSL 1.1.1f  31 Mar 2020 mcrypt: N LANG:  ZipArchive::addFile: Y
0000.012 () Free space on disk containing Updraft's temporary directory: 7888.3 MB
0000.052 () Restore setup, now closing connection and starting restore over AJAX.
0000.009 () Opened log file at time: Wed, 23 Mar 2022 15:27:34 +0000 on https://test.blvckpixel.com
0000.009 () UpdraftPlus WordPress backup plugin (https://updraftplus.com): 1.22.11 WP: 5.9.2 PHP: 7.4.3 (fpm-fcgi, Linux ip-172-31-17-9 5.11.0-1028-aws #31~20.04.1-Ubuntu SMP Fri Jan 14 14:37:50 UTC 2022 x86_64) MySQL: 8.0.27-0ubuntu0.20.04.1 (max packet size=67108864) WPLANG: fr_FR Server: nginx/1.18.0 safe_mode: 0 max_execution_time: 900 memory_limit: 512M (used: 34.2M | 18M) multisite: N openssl: OpenSSL 1.1.1f  31 Mar 2020 mcrypt: N LANG:  ZipArchive::addFile: Y
0000.009 () Free space on disk containing Updraft's temporary directory: 7888.3 MB
0000.009 () Ensuring WP_Filesystem is setup for a restore
0000.009 () WP_Filesystem is setup and ready for a restore
0000.017 () Restore job started. Entities to restore: themes. Restore options: {"updraft_encryptionphrase":"","updraft_restorer_wpcore_includewpconfig":false,"updraft_incremental_restore_point":-1}
0000.019 () Will not delete any archives after unpacking them, because there was no cloud storage for this backup
0000.024 () Entity: themes
0000.024 () restore_backup(backup_file=backup_2021-09-07-1356_Digital_Agency_830a4b61f468-themes.zip, type=themes, info=a:2:{s:4:"path";s:50:"/home/ubuntu/projects/blvckpixel/wp-content/themes";s:11:"description";s:9:"Thèmes ";}, last_one=1)
0000.025 () Décompression de la sauvegarde… (backup_2021-09-07-1356_Digital_Agency_830a4b61f468-themes.zip, 11.9 MB)
0000.027 () Unzipping backup_2021-09-07-1356_Digital_Agency_830a4b61f468-themes.zip to /home/ubuntu/projects/blvckpixel/wp-content/upgrade/34e587a6/ using UpdraftPlus_ZipArchive, starting index 0
0000.232 () Unzip progress: 1002 out of 1619 files (22 MB, themes/astra/inc/builder/type/header/off-canvas/class-astra-off-canvas-loader.php)
0000.350 () Unzip progress: 1619 out of 1619 files (33.7 MB, themes/index.php)
0000.351 () Moving old data: filesystem method / updraft_dir is potentially possible
0000.351 () Moving old data: can potentially use wp_filesystem method / -old
0000.351 () Mise de côté des anciennes données…
0000.424 () Top-level entities being moved: twentytwentyone, astra, twentytwenty, twentytwentytwo, twentynineteen, astra - child, index.php
0000.425 () Déplacement de la sauvegarde décompressée…
0000.488 () Top-level entities being moved: twentytwentyone, astra, twentytwenty, twentynineteen, astra - child, index.php
0000.489 () Nettoyage…
0000.507 () Elementor's clear cache method exists and will be executed
0000.545 () Restore successful!
0000.545 () Restore successful
